GOLD Organism ID;Organism Name;Other Names;Common Name;NCBI Taxonomy ID;Domain;Phylum;Genus;Genus Synonyms;Species;Species Synonyms;Serovar/Cultivar;Strain;Subspecies;Type Strain;Culture Collection ID;Organism Type;Cultured;Culture Type;Comments;Biosafety Level;Taxon DOI;Exemplar DOI;Exemplar Name;Genbank 16S ID;Is Public;Related Sequencing Projects;Related Analysis Projects;NCBI Organism Name;NCBI Tax ID;NCBI Superkingdom;NCBI Kingdom;NCBI Phylum;NCBI Class;NCBI Order;NCBI Family;NCBI Genus;NCBI Species;Cell Diameter;Cell Shape;Color;Gram Stain;Motility;Oxygen Requirement;pH;Salinity;Pressure;Sporulation;Carbon Source;Biotic Relationships;Temperature Range;Growth Temperature;Cell Length;Commercial Strain;Commercial Strain Comments;Cell Arrangements;Diseases;Habitats;Metabolism;Phenotypes;Energy Sources;Collection Date;Sample Isolation Publication;Sample Collection Site;Isolation Country;Sample Isolation Comments;Sample Collection Method;Contact Name;Contact Email;Isolation Host Name;Host Taxonomy ID;Ecosystem;Ecosystem Category;Ecosystem Type;Ecosystem Subtype;Specific Ecosystem;Ecosystem Path Id;Geographic Location;Latitude;Longitude;LatLong Information;Geographical Map;Broad-scale environmental context;Local environmental context;Environmental medium;Altitude;Elevation;Depth;Subsurface Depth;Sample Collection Temperature;Chlorophyll Concentration;Nitrate Concentration;Oxygen Concentration;Salinity Concentration;Methane Concentration (mmol);Sample Conductivity;Growth Conditions;Bicarbonate Concentration (mM);Soluble Iron Concentration (uM);Hydrogen Sulfide Concentration (mM);Hydrogen Sulfide Presence;Irradiance;ProPortal Ocean;ProPortal Isolation;ProPortal Station;ProPortal WOA Temperature;ProPortal WOA Salinty;ProPortal WOA Oxygen;ProPortal WOA Silicate;ProPortal WOA Phosphate;ProPortal WOA Nitrate
Go0114336;Paenibacillus wulumuqiensis Y24;;;1567107;BACTERIAL;FIRMICUTES;Paenibacillus;;Paenibacillus wulumuqiensis;;;Y24;;Yes;;Natural;Yes;Isolate;;;10.1601/tx.26857;10.1601/ex.26857;Paenibacillus wulumuqiensis;;Yes;1;1;Paenibacillus wulumuqiensis;1567107;Bacteria;;Firmicutes;Bacilli;Bacillales;Paenibacillaceae;Paenibacillus;Paenibacillus wulumuqiensis;;;;Gram+;;;;;;;;;;;;;;;;;;;;;;;;;;;;;;;;;;;;;;;;No mapping data available.;;;;;;;;;;;;;;;;;;;;;;;;;;;;;
Go0119032;Paenibacillus bovis BD3526;;;1616788;BACTERIAL;FIRMICUTES;Paenibacillus;;Paenibacillus bovis;;;BD3526;;Yes;DSM 28815;Natural;Yes;Isolate;;;10.1601/tx.28147;10.1601/ex.28147;Paenibacillus bovis;;Yes;1;1;Paenibacillus bovis;1616788;Bacteria;;Firmicutes;Bacilli;Bacillales;Paenibacillaceae;Paenibacillus;Paenibacillus bovis;;;;Gram+;;;;;;;;;Mesophile;;;;;;;;;;;;;raw yak Bos grunniens milk;;;;;;;;Engineered;Food production;Unclassified;Unclassified;Unclassified;4250;;;;;No mapping data available.;;;;;;;;30 Celcius.;;;;;;;;;;;;;;;;;;;;;
Go0114330;Paenibacillus dauci H9;;;1567106;BACTERIAL;FIRMICUTES;Paenibacillus;;Paenibacillus dauci;;;H9;;Yes;;Natural;Yes;Isolate;;;10.1601/tx.26858;10.1601/ex.26858;Paenibacillus dauci;;Yes;1;1;Paenibacillus dauci;1567106;Bacteria;;Firmicutes;Bacilli;Bacillales;Paenibacillaceae;Paenibacillus;Paenibacillus dauci;;;;Gram+;;;;;;;;;;;;;;;;;;;;;;;;;;;;;;;;;;;;;;;;No mapping data available.;;;;;;;;;;;;;;;;;;;;;;;;;;;;;
Go0541387;Paenibacillus sp. CFBP13512;;;2184007;BACTERIAL;FIRMICUTES;Paenibacillus;;Paenibacillus sp. CFBP13512;;;CFBP13512;;;CFBP 13512;Natural;Yes;Isolate;;;;;;;Yes;1;1;Paenibacillus sp. CFBP13512;2184007;Bacteria;;Firmicutes;Bacilli;Bacillales;Paenibacillaceae;Paenibacillus;Paenibacillus sp. CFBP13512;;;;;;;;;;;;;;;;;;;;;;;;2014;;Seed;France;;;Preveaux A.;;;;;;;;;1;France;;;;No mapping data available.;;;;;;;;;;;;;;;;;;;;;;;;;;;;;
Go0356710;Paenibacillus sp. TI45-13ar;;;1886670;BACTERIAL;FIRMICUTES;Paenibacillus;;Paenibacillus sp. TI45-13ar;;;TI45-13ar;;;;Natural;Yes;Isolate;;;;;;;Yes;1;1;Paenibacillus nuruki;1886670;Bacteria;;Firmicutes;Bacilli;Bacillales;Paenibacillaceae;Paenibacillus;Paenibacillus nuruki;;;;Gram+;;;;;;;;;;;;;;;;;;;;;;Korean traditional nuruk;South Korea;;;;;;;Engineered;Food production;Unclassified;Unclassified;Unclassified;4250;;;;;No mapping data available.;;;;;;;;;;;;;;;;;;;;;;;;;;;;;
Go0540707;Paenibacillus sp. 3-5-3;;;2496267;BACTERIAL;FIRMICUTES;Paenibacillus;;Paenibacillus sp. 3-5-3;;;3-5-3;;;;Natural;Yes;Isolate;;;;;;;Yes;1;1;Paenibacillus sp. 3-5-3;2496267;Bacteria;;Firmicutes;Bacilli;Bacillales;Paenibacillaceae;Paenibacillus;Paenibacillus sp. 3-5-3;;;;;;;;;;;;;;;;;;;;;;;;10/6/2016;;soil;China;;;;;;;Environmental;Terrestrial;Soil;Unclassified;Unclassified;4212;China: Nanyang city, Henan province;;;;No mapping data available.;;;;;;;;;;;;;;;;;;;;;;;;;;;;;
Go0037338;Paenibacillus sp. A9;;;1284352;BACTERIAL;FIRMICUTES;Paenibacillus;;Paenibacillus sp. A9;;;A9;;Unknown;;Natural;Yes;Isolate;;;;;;;Yes;1;1;Paenibacillus sp. A9;1284352;Bacteria;;Firmicutes;Bacilli;Bacillales;Paenibacillaceae;Paenibacillus;Paenibacillus sp. A9;;;;Gram+;;;;;;;;;;;;;;;;;;;;;;Soil;China;;;;;;;Environmental;Terrestrial;Soil;Unclassified;Unclassified;4212;;;;;No mapping data available.;;;;;;;;;;;;;;;;;;;;;;;;;;;;;
